{
    "manifestVersion": 1,
    "id": "ipmc-deploy-task",
    "name": "iPMC Deploy",
    "version": "1.0.7",
    "publisher": "ColumbusSverige",
    "targets": [
        {
            "id": "Microsoft.VisualStudio.Services"
        }
    ],    
    "description": "Deploy your iPMC extensions with this simple deploy task",
    "categories": [
        "Azure Pipelines"
    ],
    "icons": {
        "default": "images/extension-icon.png"        
    },
    "files": [
        {
            "path": "buildAndReleaseTask"
        }
    ],
    "contributions": [
        {
            "id": "ipmc-deploy",
            "type": "ms.vss-distributed-task.task",
            "targets": [
                "ms.vss-distributed-task.tasks"
            ],
            "properties": {
                "name": "buildAndReleaseTask"
            }
        }
    ]
}